[
{
    "model": "catalog.category",
    "pk": 1,
    "fields": {
        "is_published": true,
        "name": "категория 1",
        "slug": "cat-1",
        "weight": 100
    }
},
{
    "model": "catalog.category",
    "pk": 2,
    "fields": {
        "is_published": false,
        "name": "категория 2",
        "slug": "cat-2",
        "weight": 102
    }
},
{
    "model": "catalog.tag",
    "pk": 1,
    "fields": {
        "is_published": true,
        "name": "тег 1",
        "slug": "tag-1"
    }
},
{
    "model": "catalog.tag",
    "pk": 2,
    "fields": {
        "is_published": false,
        "name": "тег 2",
        "slug": "tag-2"
    }
},
{
    "model": "catalog.tag",
    "pk": 3,
    "fields": {
        "is_published": true,
        "name": "тег 3",
        "slug": "tag-3"
    }
},
{
    "model": "catalog.tag",
    "pk": 4,
    "fields": {
        "is_published": true,
        "name": "тег 4",
        "slug": "tag-4"
    }
},
{
    "model": "catalog.tag",
    "pk": 5,
    "fields": {
        "is_published": false,
        "name": "тег 5",
        "slug": "tag-5"
    }
},
{
    "model": "catalog.item",
    "pk": 1,
    "fields": {
        "is_published": true,
        "name": "товар 1",
        "category": 1,
        "is_on_main": true,
        "text": "<p>роскошно!</p>",
        "tags": [
            1,
            5
        ]
    }
},
{
    "model": "catalog.item",
    "pk": 2,
    "fields": {
        "is_published": true,
        "name": "товар 2",
        "category": 2,
        "is_on_main": false,
        "text": "роскошно",
        "tags": [
            1,
            4,
            5
        ]
    }
},
{
    "model": "catalog.item",
    "pk": 3,
    "fields": {
        "is_published": false,
        "name": "товар 3",
        "category": 2,
        "is_on_main": false,
        "text": "роскошно",
        "tags": [
            1
        ]
    }
},
{
    "model": "catalog.item",
    "pk": 4,
    "fields": {
        "is_published": true,
        "name": "товар 4",
        "category": 1,
        "is_on_main": true,
        "text": "роскошно",
        "tags": [
            1,
            2,
            3,
            4,
            5
        ]
    }
},
{
    "model": "catalog.item",
    "pk": 5,
    "fields": {
        "is_published": true,
        "name": "товар 5",
        "category": 2,
        "is_on_main": false,
        "text": "роскошно",
        "tags": [
            1,
            5
        ]
    }
},
{
    "model": "catalog.mainimage",
    "pk": 1,
    "fields": {
        "image": "catalog/1/cat.jpeg",
        "item": 1
    }
},
{
    "model": "catalog.image",
    "pk": 1,
    "fields": {
        "image": "catalog/1/catik.jpeg",
        "item": 1
    }
}
]
